{
    "mastering_store_locator": {
        "column": {
            "id": true,
            "store_name": true,
            "description": true,
            "image": true,
            "country": true,
            "city": true,
            "address": true,
            "schedule": true,
            "longitude": true,
            "latitude": true,
            "store_url_key": true
        },
        "constraint": {
            "PRIMARY": true
        }
    }
}